:: blog :: - Lollipop plot with Islands
…
I’ll be plotting with ggplot2 as before, so let’s change the numeric vector type of dataset to dataframe.

Importantly, I need to get the attributes as well.

To do this, I use the attributes function and the unlist function.

df <- data_frame(name = unlist(attributes(islands)),
                 area = islands) |> arrange(desc(area))

Warning: `data_frame()` was deprecated in tibble 1.1.0.
ℹ Please use `tibble()` instead.

df

# A tibble: 48 × 2
   name           area
   <chr>         <dbl>
 1 Asia          16988
 2 Africa        11506
 3 North America  9390
 4 South America  6795
 5 Antarctica     5500
 6 Europe         3745
 7 Australia      2968
 8 Greenland       840
 9 New Guinea      306
10 Borneo          280
# ℹ 38 more rows
…
