:: blog :: - Area plot with Nile
…
df1 <- 
  df |> 
  mutate(grp = cut_number(year, 2, labels = FALSE), 
         lag = difference(flow, default = 0))
df1

# A tsibble: 100 x 4 [1Y]
    year  flow   grp   lag
   <dbl> <dbl> <int> <dbl>
 1  1871  1120     1     0
 2  1872  1160     1    40
 3  1873   963     1  -197
 4  1874  1210     1   247
 5  1875  1160     1   -50
 6  1876  1160     1     0
 7  1877   813     1  -347
 8  1878  1230     1   417
 9  1879  1370     1   140
10  1880  1140     1  -230
# ℹ 90 more rows
…
